O<circle-inside> sub
	#<r> = #1
	#<cutter> =#2
	#<depth> = #3
	#<step> = #4

	#<x> = #<_x>
	#<y> = #<_y>

	(calcs)
	#<r> = [#<r> - [#<cutter> / 2]]

	(progress)
	G01 Z1
	G00 X[#<x> - #<r>] Y#<y>
	G01 Z0
	O<circle-low> CALL [#<r>] [#<depth>] [#<step>] 

	G00 Z0
	G01 Z1
O<circle-inside> endsub
