O<cuts-x> sub
	#<count> = #1 (количество разрезов)
	#<step-x> = #2 (шаг по оси X между разрезами)
	#<w> = #3 (размер реза по X)
	#<h> = #4 (размер реза по Y)
	#<depth> = #5 (глубина)
	#<step> = #6 (заглубление на 1 шаг)

	(calcs)
	#<x> = #<_x>
	#<y> = #<_y>

	(progress)
	G01 Z1
	G01 Z0

	O10 REPEAT [#<count>]
		G00 X#<x> Y#<y>
		O<rect-low> CALL [#<w>] [#<h>] [#<depth>] [#<step>]
		G01 Z1
		#<x> = [#<x> + #<step-x>]
		
	O10 ENDREPEAT

	G00 Z0
	G01 Z1
O<cuts-x> endsub
