O<facing-y> sub
	#<w> = #1
	#<h> = #2
	#<step-w> = #3

	(calcs)
	#<count-w> = [#<w> / #<step-w>]
	#<x> = [#<_x>]
	#<y> = [#<_y>]

	(progress)
	O10 REPEAT [#<count-w>]
		G01 Y[#<y> + #<h>]
		#<x> = [#<x> + [#<step-w> / 2]]
		G01 X[#<x>]
		G01 Y[#<y>]
		#<x> = [#<x> + [#<step-w> / 2]]
		G01 X[#<x>]
	O10 ENDREPEAT
	G01 Y[#<y> + #<h>]
	
	G01 Z1
O<facing-y> endsub
